<?xml version="1.0" encoding="UTF-8"?>
<svg width="111px" height="111px" viewBox="0 0 111 111" version="1.1" xmlns="http://www.w3.org/2000/svg" xmlns:xlink="http://www.w3.org/1999/xlink">
    <title>Line</title>
    <g id="Page-1" stroke="none" stroke-width="1" fill="none" fill-rule="evenodd" opacity="0.204297" stroke-linecap="square">
        <g id="1.1-Home-Full" transform="translate(-429.000000, -403.000000)" stroke="#FFFFFF">
            <path d="M801.5,813 L801.5,924 M746,868.5 L857,868.5 M801.5,403 L801.5,514 M746,458.5 L857,458.5 M484.5,813 L484.5,924 M429,868.5 L540,868.5 M484.5,403 L484.5,514 M429,458.5 L540,458.5 M167.5,813 L167.5,924 M112,868.5 L223,868.5 M167.5,403 L167.5,514 M112,458.5 L223,458.5 M1118.5,813 L1118.5,924 M1063,868.5 L1174,868.5 M1118.5,403 L1118.5,514 M1063,458.5 L1174,458.5 M1435.5,813 L1435.5,924 M1380,868.5 L1491,868.5 M1435.5,403 L1435.5,514 M1380,458.5 L1491,458.5 M1752.5,813 L1752.5,924 M1697,868.5 L1808,868.5 M1752.5,403 L1752.5,514 M1697,458.5 L1808,458.5" id="Combined-Shape"></path>
        </g>
    </g>
</svg>